Lab 04 Exercises

Write python programs to fulfil the requirements mentioned below.

1. Print odd numbers from 1 to 30 using a loop

2. You are given an list as below, Calculate the total, average and maximum, minimum values in the list using a proper looping technique

    numbers = [45, 93, 34, 71, 89, 56]

3. Prompt user to provide a positive integer, Then print the multiplication table upto 10

    Enter an integer: 3
    3 x 1 = 3
    3 x 2 = 6
    3 x 3 = 9
    3 x 4 = 12
    3 x 5 = 15
    3 x 6 = 18
    3 x 7 = 21
    3 x 8 = 24
    3 x 9 = 27
    3 x 10 = 30

4. Get 10 names from user inputs, count the names start with B and display those names at the end.
